\babel@toc {french}{}
\contentsline {chapter}{\numberline {1}Vue générale du projet}{2}{chapter.1}%
\contentsline {section}{\numberline {1.1}Description}{2}{section.1.1}%
\contentsline {section}{\numberline {1.2}Implémentation}{2}{section.1.2}%
\contentsline {section}{\numberline {1.3}Déroulement du programme}{3}{section.1.3}%
\contentsline {section}{\numberline {1.4}Répartition des tâches}{4}{section.1.4}%
\contentsline {chapter}{\numberline {2}Résultats}{5}{chapter.2}%
