\relax 
\providecommand\hyper@newdestlabel[2]{}
\bbl@cs{beforestart}
\catcode `:\active 
\catcode `;\active 
\catcode `!\active 
\catcode `?\active 
\providecommand\HyperFirstAtBeginDocument{\AtBeginDocument}
\HyperFirstAtBeginDocument{\ifx\hyper@anchor\@undefined
\global\let\oldcontentsline\contentsline
\gdef\contentsline#1#2#3#4{\oldcontentsline{#1}{#2}{#3}}
\global\let\oldnewlabel\newlabel
\gdef\newlabel#1#2{\newlabelxx{#1}#2}
\gdef\newlabelxx#1#2#3#4#5#6{\oldnewlabel{#1}{{#2}{#3}}}
\AtEndDocument{\ifx\hyper@anchor\@undefined
\let\contentsline\oldcontentsline
\let\newlabel\oldnewlabel
\fi}
\fi}
\global\let\hyper@last\relax 
\gdef\HyperFirstAtBeginDocument#1{#1}
\providecommand\HyField@AuxAddToFields[1]{}
\providecommand\HyField@AuxAddToCoFields[2]{}
\babel@aux{french}{}
\@writefile{toc}{\contentsline {chapter}{\numberline {1}Vue générale du projet}{2}{chapter.1}\protected@file@percent }
\@writefile{lof}{\addvspace {10\p@ }}
\@writefile{lot}{\addvspace {10\p@ }}
\@writefile{toc}{\contentsline {section}{\numberline {1.1}Description}{2}{section.1.1}\protected@file@percent }
\@writefile{toc}{\contentsline {section}{\numberline {1.2}Implémentation}{2}{section.1.2}\protected@file@percent }
\@writefile{toc}{\contentsline {section}{\numberline {1.3}Déroulement du programme}{3}{section.1.3}\protected@file@percent }
\@writefile{lof}{\contentsline {figure}{\numberline {1.1}{\ignorespaces Exemple type de ligne de commande pour lancer le programme.\relax }}{3}{figure.caption.2}\protected@file@percent }
\providecommand*\caption@xref[2]{\@setref\relax\@undefined{#1}}
\newlabel{fig:code}{{1.1}{3}{Exemple type de ligne de commande pour lancer le programme.\relax }{figure.caption.2}{}}
\@writefile{lof}{\contentsline {figure}{\numberline {1.2}{\ignorespaces Affichage du terrain avec l'hôtel de ville (le numéro 1), chaque bâtiments (de 2 à 29), les routes (le numéro 0) et le score final. \relax }}{3}{figure.caption.3}\protected@file@percent }
\newlabel{fig:printingcli}{{1.2}{3}{Affichage du terrain avec l'hôtel de ville (le numéro 1), chaque bâtiments (de 2 à 29), les routes (le numéro 0) et le score final. \relax }{figure.caption.3}{}}
\@writefile{toc}{\contentsline {section}{\numberline {1.4}Répartition des tâches}{4}{section.1.4}\protected@file@percent }
\@writefile{toc}{\contentsline {chapter}{\numberline {2}Résultats}{5}{chapter.2}\protected@file@percent }
\@writefile{lof}{\addvspace {10\p@ }}
\@writefile{lot}{\addvspace {10\p@ }}
\@writefile{lof}{\contentsline {figure}{\numberline {2.1}{\ignorespaces Scores pour la première instance.\relax }}{6}{figure.caption.4}\protected@file@percent }
\@writefile{lof}{\contentsline {figure}{\numberline {2.2}{\ignorespaces Scores pour la deuxième instance.\relax }}{6}{figure.caption.5}\protected@file@percent }
\@writefile{lof}{\contentsline {figure}{\numberline {2.3}{\ignorespaces Scores pour la troisième instance.\relax }}{6}{figure.caption.6}\protected@file@percent }
\@writefile{lof}{\contentsline {figure}{\numberline {2.4}{\ignorespaces Scores pour la quatrième instance.\relax }}{7}{figure.caption.7}\protected@file@percent }
\@writefile{lof}{\contentsline {figure}{\numberline {2.5}{\ignorespaces Scores pour la cinquième instance.\relax }}{7}{figure.caption.8}\protected@file@percent }
\@writefile{lof}{\contentsline {figure}{\numberline {2.6}{\ignorespaces Moyennes des scores pour toutes les instances.\relax }}{7}{figure.caption.9}\protected@file@percent }
\newlabel{LastPage}{{}{7}{}{page.7}{}}
\xdef\lastpage@lastpage{7}
\xdef\lastpage@lastpageHy{7}
